{
  "lazy.nvim": { "branch": "main", "commit": "7e6c863bc7563efbdd757a310d17ebc95166cef3" },
  "lualine.nvim": { "branch": "master", "commit": "2a5bae925481f999263d6f5ed8361baef8df4f83" },
  "nvim-treesitter": { "branch": "master", "commit": "7fee2c55e0ba1a6307a80eee7fab84533e5721e9" },
  "onedark.nvim": { "branch": "master", "commit": "67a74c275d1116d575ab25485d1bfa6b2a9c38a6" },
  "plenary.nvim": { "branch": "master", "commit": "3707cdb1e43f5cea73afb6037e6494e7ce847a66" },
  "telescope.nvim": { "branch": "master", "commit": "2eca9ba22002184ac05eddbe47a7fe2d5a384dfc" }
}
